<?xml version="1.0" encoding="UTF-8"?>
<svg width="22px" height="22px" viewBox="0 0 22 22" version="1.1" xmlns="http://www.w3.org/2000/svg" xmlns:xlink="http://www.w3.org/1999/xlink">
    <!-- Generator: Sketch 52.2 (67145) - http://www.bohemiancoding.com/sketch -->
    <title>Group 3</title>
    <desc>Created with Sketch.</desc>
    <defs>
        <polygon id="path-1" points="0 0 22 0 22 22 0 22"></polygon>
    </defs>
    <g id="Symbols" stroke="none" stroke-width="1" fill="none" fill-rule="evenodd">
        <g id="Social-Icon--/-Facebook">
            <g id="Group-3">
                <mask id="mask-2" fill="white">
                    <use xlink:href="#path-1"></use>
                </mask>
                <g id="Clip-2"></g>
                <path d="M20.7857031,2.29377521e-08 L1.21343752,2.29377521e-08 C0.543082054,0.000365257312 -0.000128883312,0.543941428 2.293775e-08,1.2142969 L2.293775e-08,20.7865625 C0.000343772937,21.4569179 0.543941429,22.0001289 1.2142969,22 L11.7519531,22 L11.7519531,13.4921875 L8.89453126,13.4921875 L8.89453126,10.1621094 L11.7519531,10.1621094 L11.7519531,7.71138673 C11.7519531,4.91104884 13.4366289,3.36819142 15.9113711,3.32361134 C15.9481309,3.32294533 15.9850625,3.32255861 16.022166,3.32255861 C16.5912871,3.32255861 17.1228965,3.34243166 17.5584492,3.36769728 C17.6455684,3.37276759 17.7288418,3.37803127 17.8078184,3.38340236 C17.886752,3.38877345 17.9614102,3.39425197 18.0312773,3.399709 C18.2874785,3.41971095 18.4793984,3.43951955 18.5839844,3.45339845 L18.5839844,6.42382813 L16.8357793,6.42382813 C15.4564824,6.42382813 15.1894531,7.07931641 15.1894531,8.04117188 L15.1894531,10.1621094 L18.4870898,10.1621094 L18.4873047,10.1621094 L18.0576172,13.4921875 L18.0574023,13.4921875 L15.1894531,13.4921875 L15.1894531,22 L20.7857031,22 C21.456209,22.0001289 21.9998711,21.4566601 22,20.7861328 L22,20.7857031 L22,1.21343752 C21.9996348,0.543082053 21.4560371,-0.000128883312 20.7857031,2.29377521e-08" id="Fill-1" fill="#2A2F38"></path>
            </g>
        </g>
    </g>
</svg>